…
**Merging Datasets**

``` r
final_df =
  left_join(polsmonth_df, snp_df, by = c("year", "month"))
  left_join(final_df,unemployment_df,by = c("year", "month"))
```

    ## # A tibble: 822 × 11
    ##     year month   gov_gop sen_gop rep_gop gov_dem sen_dem rep_dem president close
    ##    <dbl> <chr>     <dbl>   <dbl>   <dbl>   <dbl>   <dbl>   <dbl> <chr>     <dbl>
    ##  1  1947 January      23      51     253      23      45     198 dem          NA
    ##  2  1947 Februa…      23      51     253      23      45     198 dem          NA
    ##  3  1947 March        23      51     253      23      45     198 dem          NA
    ##  4  1947 April        23      51     253      23      45     198 dem          NA
    ##  5  1947 May          23      51     253      23      45     198 dem          NA
    ##  6  1947 June         23      51     253      23      45     198 dem          NA
    ##  7  1947 July         23      51     253      23      45     198 dem          NA
    ##  8  1947 August       23      51     253      23      45     198 dem          NA
    ##  9  1947 Septem…      23      51     253      23      45     198 dem          NA
    ## 10  1947 October      23      51     253      23      45     198 dem          NA
    ## # ℹ 812 more rows
    ## # ℹ 1 more variable: `percentage of unemployment` <dbl>
…
